1;1530566644348;node-2@172.17.0.1:1099/JADE;supernode-1@172.17.0.1:1099/JADE;20;20;1.0;false
3;1530566687145;node-2@172.17.0.1:1099/JADE;supernode-1@172.17.0.1:1099/JADE;10;10;1.0;false
4;1530566709127;node-2@172.17.0.1:1099/JADE;cloud@172.17.0.1:1099/JADE;40;21;0.525;false
6;1530566773066;node-2@172.17.0.1:1099/JADE;cloud@172.17.0.1:1099/JADE;50;10;0.2;false
8;1530566841084;node-2@172.17.0.1:1099/JADE;supernode-1@172.17.0.1:1099/JADE;110;110;1.0;false
11;1530566930112;node-2@172.17.0.1:1099/JADE;supernode-1@172.17.0.1:1099/JADE;20;20;1.0;false
12;1530566966083;node-2@172.17.0.1:1099/JADE;cloud@172.17.0.1:1099/JADE;40;0;0.0;true
14;1530567041031;node-2@172.17.0.1:1099/JADE;cloud@172.17.0.1:1099/JADE;50;0;0.0;true
15;1530567070197;node-2@172.17.0.1:1099/JADE;cloud@172.17.0.1:1099/JADE;50;0;0.0;true
16;1530567111079;node-2@172.17.0.1:1099/JADE;supernode-1@172.17.0.1:1099/JADE;40;40;1.0;false
